Day_13/Non_overlap_mealy_sequence_detector/dump.vcd
$date
	Wed Apr 12 08:42:32 2023
$end

$version
	Synopsys VCS version S-2021.09
$end

$timescale
	1ns
$end

$comment Csum: 1 400a624acdd2a1cd $end


$scope module non_over_mealy_tb $end
$var reg 1 ! clk $end
$var reg 1 " rst $end
$var reg 1 # in $end
$var reg 1 $ z $end

$scope module non_over_mealy_inst $end
$var reg 1 ! clk $end
$var reg 1 " rst $end
$var reg 1 # in $end
$var reg 1 $ z $end
$var reg 2 % state [1:0] $end
$var reg 2 & next_state [1:0] $end
$upscope $end

$upscope $end

$enddefinitions $end

#0
$dumpvars
0!
0#
1"
x$
b00 &
bxx %
$end
#5
1!
b00 %
0$
#10
0!
#15
1!
0"
#20
0!
#25
1!
1#
b01 &
#30
0!
#35
1!
0#
b01 %
b10 &
#40
0!
#45
1!
1#
b10 %
b11 &
#50
0!
#55
1!
0#
b11 %
1$
b00 &
#60
0!
#65
1!
1#
b00 %
0$
b01 &
#70
0!
#75
1!
b01 %
#80
0!
#85
1!
0#
b10 &
#90
0!
#95
1!
1#
b10 %
b11 &
#100
0!
#105
1!
0#
b11 %
1$
b00 &
#110
0!
#115
1!
1#
b00 %
0$
b01 &
